Model,Scenario,Region,Variable,Unit,2005,2010
sr15,history,World,Emissions|BC,Mt BC/yr,8.2512,8.0345
sr15,history,World,Emissions|C2F6,kt C2F6/yr,2.6495,2.3992
sr15,history,World,Emissions|C6F14,kt C6F14/yr,0.4358,0.4666
sr15,history,World,Emissions|CH4,Mt CH4/yr,346.4720389,372.1805241
sr15,history,World,Emissions|CO,Mt CO/yr,1061.5255,1048.8921
sr15,history,World,Emissions|CO2|AFOLU,Mt CO2/yr,4383.504384000001,3827.270494
sr15,history,World,Emissions|CO2|Energy and Industrial Processes,Mt CO2/yr,29227.02923,32727.23273
sr15,history,World,Emissions|HFC|HFC125,kt HFC125 / yr,13.7591,34.5984
sr15,history,World,Emissions|HFC|HFC134a,kt HFC134a / yr,120.9334,152.5132
sr15,history,World,Emissions|HFC|HFC143a,kt HFC143a / yr,12.4483,26.5373
sr15,history,World,Emissions|HFC|HFC227ea,kt HFC227ea / yr,4.89,11.5413
sr15,history,World,Emissions|HFC|HFC23,kt HFC23/yr,10.8117,9.5222
sr15,history,World,Emissions|HFC|HFC245ca,kt HFC245ca /yr,,59.40264089
sr15,history,World,Emissions|HFC|HFC32,kt HFC32 / yr,10.9934,17.9421
sr15,history,World,Emissions|HFC|HFC43-10,kt HFC4310 / yr,3.2352,6.4867
sr15,history,World,Emissions|N2O,kt N2O/yr,9943.063483,10340.114290000001
sr15,history,World,Emissions|NH3,Mt NH3/yr,50.85877856,52.83684998
sr15,history,World,Emissions|NOx,Mt NO2/yr,127.46862859999999,129.3684286
sr15,history,World,Emissions|OC,Mt OC/yr,36.3917,35.3887
sr15,history,World,Emissions|PFC,kt CF4/yr,11.6059,10.6344
sr15,history,World,Emissions|SF6,kt SF6/yr,6.3408,7.0443
sr15,history,World,Emissions|Sulfur,Mt SO2/yr,113.439,100.4414
sr15,history,World,Emissions|VOC,Mt VOC/yr,215.4629,216.4157
